com\example\demo\service\PropertyService.class
com\example\demo\DemoApplication.class
com\example\demo\dto\PropertyDTO.class
com\example\demo\service\RandomService.class
com\example\demo\controller\PropertyController.class
